Bella Beat Case Study
…
## [1] 940

#dataset 2 cleaned

weight_log_clean <- weight_log%>%
  distinct()%>%
  select(-Fat)
View(weight_log_clean)
#dataset 3 cleaned

#Cleaning dataset 1
clean_names(daily_activity)

## # A tibble: 940 x 15
##            id activity_date total_steps total_distance tracker_distance
##         <dbl> <chr>               <dbl>          <dbl>            <dbl>
##  1 1503960366 4/12/2016           13162           8.5              8.5 
##  2 1503960366 4/13/2016           10735           6.97             6.97
##  3 1503960366 4/14/2016           10460           6.74             6.74
##  4 1503960366 4/15/2016            9762           6.28             6.28
##  5 1503960366 4/16/2016           12669           8.16             8.16
##  6 1503960366 4/17/2016            9705           6.48             6.48
##  7 1503960366 4/18/2016           13019           8.59             8.59
##  8 1503960366 4/19/2016           15506           9.88             9.88
##  9 1503960366 4/20/2016           10544           6.68             6.68
## 10 1503960366 4/21/2016            9819           6.34             6.34
## # ... with 930 more rows, and 10 more variables:
## #   logged_activities_distance <dbl>, very_active_distance <dbl>,
## #   moderately_active_distance <dbl>, light_active_distance <dbl>,
## #   sedentary_active_distance <dbl>, very_active_minutes <dbl>,
## #   fairly_active_minutes <dbl>, lightly_active_minutes <dbl>,
## #   sedentary_minutes <dbl>, calories <dbl>

clean_names(daily_sleep_clean)

## # A tibble: 410 x 5
##            id sleep_day     total_sleep_reco~ total_minutes_as~ total_time_in_b~
##         <dbl> <chr>                     <dbl>             <dbl>            <dbl>
##  1 1503960366 4/12/2016 12~                 1               327              346
##  2 1503960366 4/13/2016 12~                 2               384              407
##  3 1503960366 4/15/2016 12~                 1               412              442
##  4 1503960366 4/16/2016 12~                 2               340              367
##  5 1503960366 4/17/2016 12~                 1               700              712
##  6 1503960366 4/19/2016 12~                 1               304              320
##  7 1503960366 4/20/2016 12~                 1               360              377
##  8 1503960366 4/21/2016 12~                 1               325              364
##  9 1503960366 4/23/2016 12~                 1               361              384
## 10 1503960366 4/24/2016 12~                 1               430              449
## # ... with 400 more rows
…
